verilog work "SignExtend_16to32.v"
verilog work "RegFile32.v"
verilog work "Mux2to1_5bit.v"
verilog work "Mux2to1_32bit.v"
verilog work "ALU_Control.v"
verilog work "ALU.v"
verilog work "IMEM_128x8.v"
verilog work "DMEM_256x8.v"
verilog work "CPU_EU.v"
verilog work "Control.v"
verilog work "ShiftLeft2_32bit.v"
verilog work "ProgramCounter.v"
verilog work "MIPS_Core.v"
verilog work "MIPS_Processor.v"
verilog work "MIPS_Processor_Tester.v"
verilog work "C:/Xilinx/14.7/ISE_DS/ISE//verilog/src/glbl.v"
